Smart_parking_system/smart_parking_system_waveform.vcd
$date
	Mon Jun 16 12:01:50 2025
$end
$version
	Icarus Verilog
$end
$timescale
	1s
$end
$scope module Smart_parking_system_tb $end
$var wire 3 ! current_state [2:0] $end
$var wire 1 " entry_passed $end
$var wire 1 # entry_sensor $end
$var wire 1 $ exit_passed $end
$var wire 1 % exit_sensor $end
$var wire 8 & segment_display [7:0] $end
$var wire 1 ' parking_full $end
$var wire 4 ( led_indicators [3:0] $end
$var wire 8 ) fee_amount [7:0] $end
$var wire 1 * exit_barrier $end
$var wire 1 + entry_barrier $end
$var wire 4 , digit_select [3:0] $end
$var wire 6 - available_spaces [5:0] $end
$var wire 1 . alarm $end
$var parameter 32 / BARRIER_DELAY $end
$var parameter 3 0 CARD_VERIFICATION $end
$var parameter 32 1 CLK_PERIOD $end
$var parameter 3 2 CLOSE_BARRIER $end
$var parameter 32 3 DEBOUNCE_DELAY $end
$var parameter 3 4 EMERGENCY_MODE $end
$var parameter 3 5 IDLE $end
$var parameter 32 6 MAX_CAPACITY $end
$var parameter 3 7 OPEN_BARRIER $end
$var parameter 32 8 STATE_WAIT_TIMEOUT $end
$var parameter 3 9 UPDATE_COUNT $end
$var parameter 3 : VEHICLE_DETECTED $end
$var parameter 3 ; VEHICLE_PASSING $end
$var reg 4 < card_id [3:0] $end
$var reg 1 = clk $end
$var reg 1 > emergency $end
$var reg 1 ? raw_entry_sensor $end
$var reg 1 @ raw_exit_sensor $end
$var reg 1 A reset $end
$var reg 256 B state_name [255:0] $end
$scope function state_to_string $end
$var reg 3 C state [2:0] $end
$upscope $end
$scope module dut $end
$var wire 4 D card_id [3:0] $end
$var wire 1 = clk $end
$var wire 1 > emergency $end
$var wire 1 E entry_passed $end
$var wire 1 ? raw_entry_sensor $end
$var wire 1 @ raw_exit_sensor $end
$var wire 1 A reset $end
$var wire 1 F verify_card $end
$var wire 6 G vehicle_count [5:0] $end
$var wire 8 H segment_display [7:0] $end
$var wire 1 ' parking_full $end
$var wire 1 I open_exit $end
$var wire 1 J open_entry $end
$var wire 4 K led_indicators [3:0] $end
$var wire 1 L fee_valid $end
$var wire 8 M fee_amount [7:0] $end
$var wire 1 N exit_sensor $end
$var wire 1 O exit_passed $end
$var wire 1 * exit_barrier $end
$var wire 1 P entry_sensor $end
$var wire 1 Q entry_passed_internal $end
$var wire 1 + entry_barrier $end
$var wire 4 R digit_select [3:0] $end
$var wire 3 S current_state [2:0] $end
$var wire 1 T close_exit $end
$var wire 1 U close_entry $end
$var wire 1 V card_valid $end
$var wire 1 W calculate_fee $end
$var wire 2 X barrier_status [1:0] $end
$var wire 6 Y available_spaces [5:0] $end
$var wire 1 . alarm $end
$var parameter 32 Z BARRIER_DELAY $end
$var parameter 32 [ DEBOUNCE_DELAY $end
$var parameter 32 \ MAX_CAPACITY $end
$var reg 32 ] current_time [31:0] $end
$var reg 32 ^ entry_time [31:0] $end
$var reg 32 _ entry_time_storage0 [31:0] $end
$var reg 32 ` entry_time_storage1 [31:0] $end
$var reg 32 a entry_time_storage10 [31:0] $end
$var reg 32 b entry_time_storage11 [31:0] $end
$var reg 32 c entry_time_storage12 [31:0] $end
$var reg 32 d entry_time_storage13 [31:0] $end
$var reg 32 e entry_time_storage14 [31:0] $end
$var reg 32 f entry_time_storage15 [31:0] $end
$var reg 32 g entry_time_storage2 [31:0] $end
$var reg 32 h entry_time_storage3 [31:0] $end
$var reg 32 i entry_time_storage4 [31:0] $end
$var reg 32 j entry_time_storage5 [31:0] $end
$var reg 32 k entry_time_storage6 [31:0] $end
$var reg 32 l entry_time_storage7 [31:0] $end
$var reg 32 m entry_time_storage8 [31:0] $end
$var reg 32 n entry_time_storage9 [31:0] $end
$var reg 32 o exit_time [31:0] $end
$var reg 4 p last_entry_id [3:0] $end
$var reg 4 q last_exit_id [3:0] $end
$var reg 8 r vehicle_id [7:0] $end
$scope module barrier_control_inst $end
$var wire 1 = clk $end
$var wire 1 > emergency $end
$var wire 1 A reset $end
$var wire 1 N vehicle_direction $end
$var wire 1 I open_exit $end
$var wire 1 J open_entry $end
$var wire 1 T close_exit $end
$var wire 1 U close_entry $end
$var wire 2 s barrier_status [1:0] $end
$var parameter 2 t BARRIERS_CLOSED $end
$var parameter 32 u BARRIER_DELAY $end
$var parameter 2 v BOTH_OPEN $end
$var parameter 2 w ENTRY_OPEN $end
$var parameter 2 x EXIT_OPEN $end
$var reg 1 + entry_barrier $end
$var reg 1 y entry_closing $end
$var reg 10 z entry_delay_counter [9:0] $end
$var reg 1 { entry_opening $end
$var reg 1 * exit_barrier $end
$var reg 1 | exit_closing $end
$var reg 10 } exit_delay_counter [9:0] $end
$var reg 1 ~ exit_opening $end
$upscope $end
$scope module display_module_inst $end
$var wire 2 !" barrier_status [1:0] $end
$var wire 1 = clk $end
$var wire 1 A reset $end
$var wire 6 "" vehicle_count [5:0] $end
$var wire 8 #" fee_amount [7:0] $end
$var wire 3 $" current_state [2:0] $end
$var wire 6 %" available_spaces [5:0] $end
$var wire 1 . alarm $end
$var parameter 32 &" REFRESH_RATE $end
$var reg 4 '" current_digit [3:0] $end
$var reg 2 (" digit_index [1:0] $end
$var reg 4 )" digit_select [3:0] $end
$var reg 4 *" led_indicators [3:0] $end
$var reg 10 +" refresh_counter [9:0] $end
$var reg 8 ," segment_display [7:0] $end
$scope function get_segment_pattern $end
$var reg 4 -" digit [3:0] $end
$upscope $end
$upscope $end
$scope module fee_calculator_inst $end
$var wire 1 = clk $end
$var wire 32 ." entry_time [31:0] $end
$var wire 32 /" exit_time [31:0] $end
$var wire 1 A reset $end
$var wire 8 0" vehicle_id [7:0] $end
$var wire 1 W calculate_fee $end
$var parameter 8 1" BASE_FEE $end
$var parameter 8 2" HOURLY_RATE $end
$var parameter 32 3" MINIMUM_TIME $end
$var reg 8 4" fee_amount [7:0] $end
$var reg 1 L fee_valid $end
$var reg 8 5" hours_parked [7:0] $end
$var reg 32 6" parking_duration [31:0] $end
$upscope $end
$scope module fsm_control_inst $end
$var wire 2 7" barrier_status [1:0] $end
$var wire 4 8" card_id [3:0] $end
$var wire 1 V card_valid $end
$var wire 1 = clk $end
$var wire 1 > emergency $end
$var wire 1 E entry_passed $end
$var wire 1 L fee_valid $end
$var wire 1 A reset $end
$var wire 1 ' parking_full $end
$var wire 1 N exit_sensor $end
$var wire 1 O exit_passed $end
$var wire 1 P entry_sensor $end
$var parameter 3 9" CARD_VERIFICATION $end
$var parameter 3 :" CLOSE_BARRIER $end
$var parameter 3 ;" EMERGENCY_MODE $end
$var parameter 3 <" IDLE $end
$var parameter 3 =" OPEN_BARRIER $end
$var parameter 10 >" TIMEOUT_MAX $end
$var parameter 3 ?" UPDATE_COUNT $end
$var parameter 3 @" VEHICLE_DETECTED $end
$var parameter 3 A" VEHICLE_PASSING $end
$var parameter 10 B" VEHICLE_PASSING_TIMEOUT $end
$var reg 1 . alarm $end
$var reg 1 C" alarm_triggered $end
$var reg 1 W calculate_fee $end
$var reg 1 D" card_check_done $end
$var reg 1 E" card_verified $end
$var reg 1 U close_entry $end
$var reg 1 T close_exit $end
$var reg 3 F" current_state [2:0] $end
$var reg 1 G" entry_in_progress $end
$var reg 1 H" exit_in_progress $end
$var reg 1 I" idle_stabilized $end
$var reg 1 J" is_entry_direction $end
$var reg 1 J open_entry $end
$var reg 1 I open_exit $end
$var reg 4 K" prev_card_id [3:0] $end
$var reg 10 L" timeout_counter [9:0] $end
$var reg 1 F verify_card $end
$upscope $end
$scope module sensor_interface_inst $end
$var wire 1 = clk $end
$var wire 1 ? raw_entry_sensor $end
$var wire 1 @ raw_exit_sensor $end
$var wire 1 A reset $end
$var parameter 32 M" DEBOUNCE_DELAY $end
$var reg 8 N" entry_counter [7:0] $end
$var reg 1 O" entry_detected $end
$var reg 1 Q entry_passed $end
$var reg 1 P" entry_passed_debug $end
$var reg 1 P entry_sensor $end
$var reg 1 Q" entry_sensor_prev $end
$var reg 8 R" exit_counter [7:0] $end
$var reg 1 S" exit_detected $end
$var reg 1 O exit_passed $end
$var reg 1 T" exit_passed_debug $end
$var reg 1 N exit_sensor $end
$var reg 1 U" exit_sensor_prev $end
$upscope $end
$scope module vehicle_counter_inst $end
$var wire 1 = clk $end
$var wire 1 E entry_passed $end
$var wire 1 O exit_passed $end
$var wire 6 V" max_capacity [5:0] $end
$var wire 1 A reset $end
$var parameter 32 W" MAX_CAPACITY $end
$var reg 6 X" available_spaces [5:0] $end
$var reg 1 ' parking_full $end
$var reg 6 Y" vehicle_count [5:0] $end
$upscope $end
$upscope $end
$scope task fill_parking_to_capacity $end
$var integer 32 Z" j [31:0] $end
$upscope $end
$scope task test_emergency_mode $end
$var reg 1 [" success $end
$upscope $end
$scope task test_entry_when_full $end
$upscope $end
$scope task test_simultaneous_entry_exit $end
$var reg 1 \" success $end
$upscope $end
$scope task test_vehicle_entry_with_invalid_card $end
$var reg 1 ]" success $end
$upscope $end
$scope task test_vehicle_entry_with_valid_card $end
$var reg 4 ^" card_value [3:0] $end
$var reg 1 _" success $end
$upscope $end
$scope task test_vehicle_exit $end
$var reg 4 `" card_value [3:0] $end
$var reg 1 a" success $end
$upscope $end
$scope task wait_for_barrier_close $end
$var reg 1 b" is_entry $end
$var reg 1 c" success $end
$var integer 32 d" timeout_counter [31:0] $end
$upscope $end
$scope task wait_for_barrier_open $end
$var reg 1 e" is_entry $end
$var reg 1 f" success $end
$var integer 32 g" timeout_counter [31:0] $end
$upscope $end
$scope task wait_for_state $end
$var reg 1 h" success $end
$var reg 3 i" target_state [2:0] $end
$var integer 32 j" timeout_counter [31:0] $end
$upscope $end
$upscope $end
$enddefinitions $end
$comment Show the parameter values. $end
$dumpall
b1010 W"
b101 M"
b1001011000 B"
b100 A"
b1 @"
b110 ?"
b100101100 >"
b11 ="
b0 <"
b111 ;"
b101 :"
b10 9"
b111100 3"
b101 2"
b1010 1"
b1111101000 &"
b10 x
b1 w
b11 v
b1010 u
b0 t
b1010 \
b101 [
b1010 Z
b100 ;
b1 :
b110 9
b110010 8
b11 7
b1010 6
b0 5
b111 4
b101 3
b101 2
b1010 1
b10 0
b1010 /
$end
#0
$dumpvars
bx j"
bx i"
xh"
bx g"
xf"
xe"
bx d"
xc"
xb"
xa"
bx `"
x_"
bx ^"
x]"
x\"
x["
bx Z"
b0 Y"
b1010 X"
b1010 V"
0U"
0T"
0S"
b0 R"
0Q"
0P"
0O"
b0 N"
bx L"
bx K"
xJ"
xI"
xH"
xG"
bx F"
xE"
xD"
xC"
b0 8"
bx 7"
bx 6"
bx 5"
bx 4"
bx 0"
bx /"
bx ."
bx -"
bx ,"
bx +"
bx *"
bx )"
bx ("
bx '"
b1010 %"
bx $"
bx #"
b0 ""
bx !"
x~
bx }
x|
x{
bx z
xy
bx s
bx r
bx q
bx p
bx o
bx n
bx m
bx l
bx k
bx j
bx i
bx h
bx g
bx f
bx e
bx d
bx c
bx b
bx a
bx `
bx _
bx ^
bx ]
b1010 Y
bx X
xW
0V
xU
xT
bx S
bx R
0Q
0P
0O
0N
bx M
xL
bx K
xJ
xI
bx H
b0 G
xF
0E
b0 D
bx C
bx B
1A
0@
0?
0>
0=
b0 <
x.
b1010 -
bx ,
x+
x*
bx )
bx (
0'
bx &
0%
0$
0#
0"
bx !
$end
#5
b0 X
b0 s
b0 !"
b0 7"
b1001001010001000100110001000101 B
b0 C
0|
0y
0~
0{
b0 }
b0 z
0*
0+
0I"
0D"
b0 K"
0C"
0H"
0G"
0E"
0J"
b0 L"
0F
0W
0.
0T
0U
0I
0J
b0 !
b0 S
b0 $"
b0 F"
b0 5"
b0 6"
0L
b0 )
b0 M
b0 #"
b0 4"
b0 '"
b1111 ,
b1111 R
b1111 )"
b11111111 &
b11111111 H
b11111111 ,"
b0 ("
b0 +"
b0 (
b0 K
b0 *"
b0 f
b0 e
b0 d
b0 c
b0 b
b0 a
b0 n
b0 m
b0 l
b0 k
b0 j
b0 i
b0 h
b0 g
b0 `
b0 _
b0 q
b0 p
b0 r
b0 0"
b0 o
b0 /"
b0 ^
b0 ."
b0 ]
1=
#10
0=
#15
1=
#20
0=
#25
1=
#30
0=
#35
1=
#40
0=
#45
1=
#50
0=
0A
#55
b1 ]
b1 (
b1 K
b1 *"
b1 +"
1T
1U
b1 L"
1=
#60
0=
#65
1|
1y
b10 L"
1T
1U
b10 +"
b10 ]
1=
#70
0=
#75
b11 ]
b11 +"
b11 L"
1T
1U
b1 }
b1 z
1=
#80
0=
#85
b10 }
b10 z
b100 L"
1T
1U
b100 +"
b100 ]
1=
#90
0=
#95
b101 ]
b101 +"
1I"
b101 L"
1T
1U
b11 }
b11 z
1=
#100
0=
#105
b100 }
b100 z
1T
1U
b110 +"
b110 ]
1=
#110
0=
#115
b111 ]
b111 +"
1T
1U
b101 }
b101 z
1=
#120
0=
#125
0|
0y
b0 }
b0 z
1T
1U
b1000 +"
b1000 ]
1=
#130
0=
#135
b1001 ]
b1001 +"
1T
1U
1|
1y
1=
#140
0=
#145
b1 }
b1 z
1T
1U
b1010 +"
b1010 ]
1=
#150
0=
#155
b1011 ]
b1011 +"
1T
1U
b10 }
b10 z
1=
#160
0=
#165
b11 }
b11 z
1T
1U
b1100 +"
b1100 ]
1=
#170
0=
#175
b1101 ]
b1101 +"
1T
1U
b100 }
b100 z
1=
#180
0=
#185
b101 }
b101 z
1T
1U
b1110 +"
b1110 ]
1=
#190
0=
#195
b1111 ]
b1111 +"
1T
1U
0|
0y
b0 }
b0 z
1=
#200
0=
1V
b101 <
b101 D
b101 8"
1?
b101 ^"
#205
b1 N"
1|
1y
b101 K"
1T
1U
b10000 +"
b10000 ]
1=
#210
0=
#215
b10001 ]
b10001 +"
1T
1U
b1 }
b1 z
b10 N"
1=
#220
0=
#225
b11 N"
b10 }
b10 z
1T
1U
b10010 +"
b10010 ]
1=
#230
0=
#235
b10011 ]
b10011 +"
1T
1U
b11 }
b11 z
b100 N"
1=
#240
0=
#245
b101 N"
b100 }
b100 z
1T
1U
b10100 +"
b10100 ]
1=
#250
0=
0h"
b0 j"
b10 i"
#255
b10101 ]
b10101 +"
1T
1U
b101 }
b101 z
b0 N"
1#
1P
1=
b1 j"
#260
0=
b10 j"
#265
b100001101000001010100100100010001011111010101100100010101010010010010010100011001001001010000110100000101010100010010010100111101001110 B
b10 C
1O"
1Q"
0|
0y
b0 }
b0 z
0I"
b0 L"
b10 !
b10 S
b10 $"
b10 F"
1F
1G"
1J"
1T
1U
b10110 +"
b10110 ]
1=
b11 j"
#270
0=
1_"
b110010000 j"
1h"
#275
b10011110101000001000101010011100101111101000010010000010101001001010010010010010100010101010010 B
b11 C
b10111 ]
b10111 +"
b1 L"
b11 !
b11 S
b11 $"
b11 F"
1E"
1D"
0F
0T
0U
1|
1y
1=
#280
0=
#285
b10101100100010101001000010010010100001101001100010001010101111101010000010000010101001101010011010010010100111001000111 B
b100 C
b1 }
b1 z
b0 L"
b100 !
b100 S
b100 $"
b100 F"
1J
b11000 +"
b11000 ]
1=
#290
0=
#295
b11001 ]
b11001 +"
b1 L"
1J
b10 }
b10 z
1=
#300
0=
#305
b11 }
b11 z
b10 L"
1J
b11010 +"
b11010 ]
1=
#310
0=
#315
b11011 ]
b11011 +"
b11 L"
1J
b100 }
b100 z
1=
#320
0=
0f"
b0 g"
1e"
#325
b101 }
b101 z
b100 L"
1J
b11100 +"
b11100 ]
1=
#330
0=
b1 g"
#335
b11101 ]
b11101 +"
b101 L"
1J
0|
0y
1=
#340
0=
b10 g"
#345
b0 z
1{
b110 L"
1J
b11110 +"
b11110 ]
1=
#350
0=
b11 g"
#355
b11111 ]
b11111 +"
b111 L"
1J
b1 z
1=
#360
0=
b100 g"
#365
b10 z
b1000 L"
1J
b100000 +"
b100000 ]
1=
#370
0=
b101 g"
#375
b100001 ]
b100001 +"
b1001 L"
1J
b11 z
1=
#380
0=
b110 g"
#385
b100 z
b1010 L"
1J
b100010 +"
b100010 ]
1=
#390
0=
b111 g"
#395
b100011 ]
b100011 +"
b1011 L"
1J
b101 z
1=
#400
0=
b1000 g"
#405
b110 z
b1100 L"
1J
b100100 +"
b100100 ]
1=
#410
0=
b1001 g"
#415
b100101 ]
b100101 +"
b1101 L"
1J
b111 z
1=
#420
0=
b1010 g"
#425
b1000 z
b1110 L"
1J
b100110 +"
b100110 ]
1=
#430
0=
b1011 g"
#435
b100111 ]
b100111 +"
b1111 L"
1J
b1001 z
1=
#440
0=
b1100 g"
#445
b1010 z
b10000 L"
1J
b101000 +"
b101000 ]
1=
#450
0=
b1101 g"
#455
b1 X
b1 s
b1 !"
b1 7"
b101001 ]
b101001 +"
b10001 L"
1J
0{
1+
b0 z
1=
#460
0=
0h"
b0 j"
b100 i"
b11001000 g"
1f"
#465
b10010 L"
1J
b101010 +"
b11 (
b11 K
b11 *"
b101010 ]
1=
b110010000 j"
1h"
#470
0=
#475
b101011 ]
b101011 +"
b10011 L"
1J
1=
#480
0=
#485
b10100 L"
1J
b101100 +"
b101100 ]
1=
#490
0=
#495
b101101 ]
b101101 +"
b10101 L"
1J
1=
#500
0=
#505
b10110 L"
1J
b101110 +"
b101110 ]
1=
#510
0=
#515
1"
1E
b101111 ]
b101111 +"
b10111 L"
1J
1Q
b1 N"
1=
0?
#520
0=
#525
b1000011010011000100111101010011010001010101111101000010010000010101001001010010010010010100010101010010 B
b101 C
b10 N"
1Q
b11000 L"
b101 !
b101 S
b101 $"
b101 F"
1J
b110000 +"
b101111 _
b1 p
b110000 ]
b1001 -
b1001 Y
b1001 %"
b1001 X"
b1 G
b1 ""
b1 Y"
1=
#530
0=
#535
b10101010101000001000100010000010101010001000101010111110100001101001111010101010100111001010100 B
b110 C
b1 r
b1 0"
b110000 `
b10 p
b110001 ]
b110001 +"
b0 L"
b110 !
b110 S
b110 $"
b110 F"
1U
0J
1Q
b11 N"
b1000 -
b1000 Y
b1000 %"
b1000 X"
b10 G
b10 ""
b10 Y"
1=
#540
0=
#545
b1010110010001010100100001001001010000110100110001000101010111110100010001000101010101000100010101000011010101000100010101000100 B
b1 C
b100 N"
1Q
1y
b1 !
b1 S
b1 $"
b1 F"
0G"
0D"
0E"
0U
b110010 +"
b10 r
b10 0"
b110001 g
b11 p
b110010 ]
b111 -
b111 Y
b111 %"
b111 X"
b11 G
b11 ""
b11 Y"
1=
#550
0=
#555
b1001001010001000100110001000101 B
b0 C
b11 r
b11 0"
b110010 h
b100 p
b110011 ]
b110011 +"
b1 L"
b0 !
b0 S
b0 $"
b0 F"
b1 z
1Q
b101 N"
b110 -
b110 Y
b110 %"
b110 X"
b100 G
b100 ""
b100 Y"
1=
#560
0=
#565
b0 N"
0#
0P
1Q
b10 z
1T
1U
b10 L"
b110100 +"
b100 r
b100 0"
b110011 i
b101 p
b110100 ]
b101 -
b101 Y
b101 %"
b101 X"
b101 G
b101 ""
b101 Y"
1=
0c"
b0 d"
1b"
#570
0=
#575
b101 r
b101 0"
b110100 j
b110 p
b110101 ]
b110101 +"
b11 L"
1T
1U
b0 }
1|
b11 z
1P"
0O"
1Q
0Q"
b100 -
b100 Y
b100 %"
b100 X"
b110 G
b110 ""
b110 Y"
1=
b1 d"
#580
0=
#585
0"
0E
0Q
b1 }
b100 z
b100 L"
1T
1U
b110110 +"
b110 r
b110 0"
b110101 k
b111 p
b110110 ]
b11 -
b11 Y
b11 %"
b11 X"
b111 G
b111 ""
b111 Y"
1=
b10 d"
#590
0=
#595
b110111 ]
b110111 +"
1I"
b101 L"
1T
1U
b10 }
b101 z
1=
b11 d"
#600
0=
#605
b0 X
b0 s
b0 !"
b0 7"
0y
0+
b11 }
b0 z
1T
1U
b111000 +"
b111000 ]
1=
b100 d"
#610
0=
#615
b111001 ]
b1 (
b1 K
b1 *"
b111001 +"
1T
1U
b100 }
1y
1=
0h"
b0 j"
b0 i"
b10010110 d"
1c"
#620
0=
b110010000 j"
1h"
#625
b1 z
b101 }
1T
1U
b111010 +"
b111010 ]
1=
#630
0=
#635
b111011 ]
b111011 +"
1T
1U
0|
b0 }
b10 z
1=
#640
0=
#645
1|
b11 z
1T
1U
b111100 +"
b111100 ]
1=
#650
0=
#655
b111101 ]
b111101 +"
1T
1U
b1 }
b100 z
1=
#660
0=
#665
b10 }
b101 z
1T
1U
b111110 +"
b111110 ]
1=
#670
0=
#675
b111111 ]
b111111 +"
1T
1U
0y
b11 }
b0 z
1=
#680
0=
#685
b100 }
1y
1T
1U
b1000000 +"
b1000000 ]
1=
#690
0=
#695
b1000001 ]
b1000001 +"
1T
1U
b1 z
b101 }
1=
#700
0=
#705
0|
b0 }
b10 z
1T
1U
b1000010 +"
b1000010 ]
1=
#710
0=
#715
b1000011 ]
b1000011 +"
1T
1U
1|
b11 z
1=
#720
0=
1@
b101 `"
#725
b1 R"
b1 }
b100 z
1T
1U
b1000100 +"
b1000100 ]
1=
#730
0=
#735
b1000101 ]
b1000101 +"
1T
1U
b10 }
b101 z
b10 R"
1=
#740
0=
#745
b11 R"
0y
b11 }
b0 z
1T
1U
b1000110 +"
b1000110 ]
1=
#750
0=
#755
b1000111 ]
b1000111 +"
1T
1U
b100 }
1y
b100 R"
1=
#760
0=
#765
b101 R"
b1 z
b101 }
1T
1U
b1001000 +"
b1001000 ]
1=
#770
0=
0h"
b0 j"
b1 i"
#775
b1001001 ]
b1001001 +"
1T
1U
0|
b0 }
b10 z
b0 R"
1%
1N
1=
b1 j"
#780
0=
b10 j"
#785
b1010110010001010100100001001001010000110100110001000101010111110100010001000101010101000100010101000011010101000100010101000100 B
b1 C
1S"
1U"
1|
b11 z
0I"
b0 L"
b1 !
b1 S
b1 $"
b1 F"
1W
1H"
0J"
1T
1U
b1001010 +"
b1001010 ]
1=
b11 j"
#790
0=
1a"
b110010000 j"
1h"
#795
b1001011 ]
b1001011 +"
1L
b1010 )
b1010 M
b1010 #"
b1010 4"
b1 5"
b1 L"
0W
0T
0U
b1 }
b100 z
1=
#800
0=
#805
b10011110101000001000101010011100101111101000010010000010101001001010010010010010100010101010010 B
b11 C
b10 }
b101 z
b10 L"
b11 !
b11 S
b11 $"
b11 F"
0L
b1001100 +"
b1001100 ]
1=
#810
0=
#815
b10101100100010101001000010010010100001101001100010001010101111101010000010000010101001101010011010010010100111001000111 B
b100 C
b1001101 ]
b1001101 +"
b0 L"
b100 !
b100 S
b100 $"
b100 F"
1I
b11 }
0y
1=
#820
0=
#825
b100 }
b1 L"
1I
b1001110 +"
b1001110 ]
1=
#830
0=
#835
b1001111 ]
b1001111 +"
b10 L"
1I
b101 }
1=
#840
0=
0f"
b0 g"
0e"
#845
0|
b11 L"
1I
b1010000 +"
b1010000 ]
1=
#850
0=
b1 g"
#855
b1010001 ]
b1010001 +"
b100 L"
1I
b0 }
1~
1=
#860
0=
b10 g"
#865
b1 }
b101 L"
1I
b1010010 +"
b1010010 ]
1=
#870
0=
b11 g"
#875
b1010011 ]
b1010011 +"
b110 L"
1I
b10 }
1=
#880
0=
b100 g"
#885
b11 }
b111 L"
1I
b1010100 +"
b1010100 ]
1=
#890
0=
b101 g"
#895
b1010101 ]
b1010101 +"
b1000 L"
1I
b100 }
1=
#900
0=
b110 g"
#905
b101 }
b1001 L"
1I
b1010110 +"
b1010110 ]
1=
#910
0=
b111 g"
#915
b1010111 ]
b1010111 +"
b1010 L"
1I
b110 }
1=
#920
0=
b1000 g"
#925
b111 }
b1011 L"
1I
b1011000 +"
b1011000 ]
1=
#930
0=
b1001 g"
#935
b1011001 ]
b1011001 +"
b1100 L"
1I
b1000 }
1=
#940
0=
b1010 g"
#945
b1001 }
b1101 L"
1I
b1011010 +"
b1011010 ]
1=
#950
0=
b1011 g"
#955
b1011011 ]
b1011011 +"
b1110 L"
1I
b1010 }
1=
#960
0=
b1100 g"
#965
b10 X
b10 s
b10 !"
b10 7"
0~
1*
b0 }
b1111 L"
1I
b1011100 +"
b1011100 ]
1=
#970
0=
0h"
b0 j"
b100 i"
b11001000 g"
1f"
#975
b1011101 ]
b11 (
b11 K
b11 *"
b1011101 +"
b10000 L"
1I
1=
b110010000 j"
1h"
#980
0=
#985
b10001 L"
1I
b1011110 +"
b1011110 ]
1=
#990
0=
#995
b1011111 ]
b1011111 +"
b10010 L"
1I
1=
#1000
0=
#1005
b10011 L"
1I
b1100000 +"
b1100000 ]
1=
#1010
0=
#1015
b1100001 ]
b1100001 +"
b10100 L"
1I
1=
#1020
0=
#1025
b1 R"
1$
1O
b10101 L"
1I
b1100010 +"
b1100010 ]
1=
0@
#1030
0=
#1035
b1000011010011000100111101010011010001010101111101000010010000010101001001010010010010010100010101010010 B
b101 C
b0 r
b0 0"
b1100010 o
b1100010 /"
b101111 ^
b101111 ."
b1 q
b1100011 ]
b1100011 +"
b10110 L"
b101 !
b101 S
b101 $"
b101 F"
1I
1$
1O
b10 R"
b100 -
b100 Y
b100 %"
b100 X"
b110 G
b110 ""
b110 Y"
1=
#1040
0=
#1045
b10101010101000001000100010000010101010001000101010111110100001101001111010101010100111001010100 B
b110 C
b11 R"
1$
1O
b0 L"
b110 !
b110 S
b110 $"
b110 F"
1T
0I
b1100100 +"
b1 r
b1 0"
b1100011 o
b1100011 /"
b110000 ^
b110000 ."
b10 q
b1100100 ]
b101 -
b101 Y
b101 %"
b101 X"
b101 G
b101 ""
b101 Y"
1=
#1050
0=
#1055
b1010110010001010100100001001001010000110100110001000101010111110100010001000101010101000100010101000011010101000100010101000100 B
b1 C
b10 r
b10 0"
b1100100 o
b1100100 /"
b110001 ^
b110001 ."
b11 q
b1100101 ]
b1100101 +"
b1 !
b1 S
b1 $"
b1 F"
0H"
0T
1|
1$
1O
b100 R"
b110 -
b110 Y
b110 %"
b110 X"
b100 G
b100 ""
b100 Y"
1=
#1060
0=
#1065
b1001001010001000100110001000101 B
b0 C
b101 R"
1$
1O
b1 }
b1 L"
b0 !
b0 S
b0 $"
b0 F"
b1100110 +"
b11 r
b11 0"
b1100101 o
b1100101 /"
b110010 ^
b110010 ."
b100 q
b1100110 ]
b111 -
b111 Y
b111 %"
b111 X"
b11 G
b11 ""
b11 Y"
1=
#1070
0=
#1075
b100 r
b100 0"
b1100110 o
b1100110 /"
b110011 ^
b110011 ."
b101 q
b1100111 ]
b1100111 +"
1T
1U
b10 L"
b10 }
1$
1O
b0 R"
0%
0N
b1000 -
b1000 Y
b1000 %"
b1000 X"
b10 G
b10 ""
b10 Y"
1=
0c"
b0 d"
0b"
#1080
0=
#1085
1T"
0S"
1$
1O
0U"
b11 }
b0 z
1y
b11 L"
1T
1U
b1101000 +"
b101 r
b101 0"
b1100111 o
b1100111 /"
b110100 ^
b110100 ."
b110 q
b1101000 ]
b1001 -
b1001 Y
b1001 %"
b1001 X"
b1 G
b1 ""
b1 Y"
1=
b1 d"
#1090
0=
#1095
b110 r
b110 0"
b1101000 o
b1101000 /"
b110101 ^
b110101 ."
b111 q
b1101001 ]
b1101001 +"
b100 L"
1T
1U
b1 z
b100 }
0$
0O
b1010 -
b1010 Y
b1010 %"
b1010 X"
b0 G
b0 ""
b0 Y"
1=
b10 d"
#1100
0=
#1105
b101 }
b10 z
1I"
b101 L"
1T
1U
b1101010 +"
b1101010 ]
1=
b11 d"
#1110
0=
#1115
b0 X
b0 s
b0 !"
b0 7"
b1101011 ]
b1101011 +"
1T
1U
0|
0*
b0 }
b11 z
1=
b100 d"
#1120
0=
#1125
1|
b100 z
1T
1U
b1101100 +"
b1 (
b1 K
b1 *"
b1101100 ]
1=
0h"
b0 j"
b0 i"
b10010110 d"
1c"
#1130
0=
b110010000 j"
1h"
#1135
b1101101 ]
b1101101 +"
1T
1U
b1 }
b101 z
1=
#1140
0=
#1145
0y
b10 }
b0 z
1T
1U
b1101110 +"
b1101110 ]
1=
#1150
0=
#1155
b1101111 ]
b1101111 +"
1T
1U
b11 }
1y
1=
#1160
0=
#1165
b1 z
b100 }
1T
1U
b1110000 +"
b1110000 ]
1=
#1170
0=
#1175
b1110001 ]
b1110001 +"
1T
1U
b101 }
b10 z
1=
#1180
0=
#1185
0|
b0 }
b11 z
1T
1U
b1110010 +"
b1110010 ]
1=
#1190
0=
#1195
b1110011 ]
b1110011 +"
1T
1U
1|
b100 z
1=
#1200
0=
#1205
b1 }
b101 z
1T
1U
b1110100 +"
b1110100 ]
1=
#1210
0=
#1215
b1110101 ]
b1110101 +"
1T
1U
0y
b10 }
b0 z
1=
#1220
0=
#1225
b11 }
1y
1T
1U
b1110110 +"
b1110110 ]
1=
#1230
0=
0V
b0 <
b0 D
b0 8"
1?
#1235
b1110111 ]
b1110111 +"
b0 K"
1T
1U
b1 z
b100 }
b1 N"
1=
#1240
0=
#1245
b10 N"
b101 }
b10 z
1T
1U
b1111000 +"
b1111000 ]
1=
#1250
0=
#1255
b1111001 ]
b1111001 +"
1T
1U
0|
b0 }
b11 z
b11 N"
1=
#1260
0=
#1265
b100 N"
1|
b100 z
1T
1U
b1111010 +"
b1111010 ]
1=
#1270
0=
#1275
b1111011 ]
b1111011 +"
1T
1U
b1 }
b101 z
b101 N"
1=
#1280
0=
0h"
b0 j"
b10 i"
#1285
b0 N"
1#
1P
0y
b10 }
b0 z
1T
1U
b1111100 +"
b1111100 ]
1=
b1 j"
#1290
0=
b10 j"
#1295
b100001101000001010100100100010001011111010101100100010101010010010010010100011001001001010000110100000101010100010010010100111101001110 B
b10 C
b1111101 ]
b1111101 +"
0I"
b0 L"
b10 !
b10 S
b10 $"
b10 F"
1F
1G"
1J"
1T
1U
b11 }
1y
1O"
1Q"
1=
b11 j"
#1300
0=
1]"
b110010000 j"
1h"
#1305
b1 z
b100 }
b1 L"
1C"
1.
1D"
0F
0T
0U
b1111110 +"
b1111110 ]
1=
#1310
0=
