FSM_control/fsm_control_waveform.vcd
$date
	Mon Jun 16 13:09:25 2025
$end
$version
	Icarus Verilog
$end
$timescale
	1s
$end
$scope module FSM_control_tb $end
$var wire 1 ! verify_card $end
$var wire 1 " open_exit $end
$var wire 1 # open_entry $end
$var wire 3 $ current_state [2:0] $end
$var wire 1 % close_exit $end
$var wire 1 & close_entry $end
$var wire 1 ' calculate_fee $end
$var wire 1 ( alarm $end
$var parameter 3 ) CARD_VERIFICATION $end
$var parameter 32 * CLK_PERIOD $end
$var parameter 3 + CLOSE_BARRIER $end
$var parameter 3 , EMERGENCY_MODE $end
$var parameter 3 - IDLE $end
$var parameter 3 . OPEN_BARRIER $end
$var parameter 3 / UPDATE_COUNT $end
$var parameter 3 0 VEHICLE_DETECTED $end
$var parameter 3 1 VEHICLE_PASSING $end
$var reg 2 2 barrier_status [1:0] $end
$var reg 4 3 card_id [3:0] $end
$var reg 1 4 card_valid $end
$var reg 1 5 clk $end
$var reg 1 6 emergency $end
$var reg 1 7 entry_passed $end
$var reg 1 8 entry_sensor $end
$var reg 1 9 exit_passed $end
$var reg 1 : exit_sensor $end
$var reg 1 ; fee_valid $end
$var reg 1 < parking_full $end
$var reg 1 = reset $end
$var reg 1024 > state_name [1023:0] $end
$scope module uut $end
$var wire 2 ? barrier_status [1:0] $end
$var wire 4 @ card_id [3:0] $end
$var wire 1 4 card_valid $end
$var wire 1 5 clk $end
$var wire 1 6 emergency $end
$var wire 1 7 entry_passed $end
$var wire 1 8 entry_sensor $end
$var wire 1 9 exit_passed $end
$var wire 1 : exit_sensor $end
$var wire 1 ; fee_valid $end
$var wire 1 < parking_full $end
$var wire 1 = reset $end
$var parameter 3 A CARD_VERIFICATION $end
$var parameter 3 B CLOSE_BARRIER $end
$var parameter 3 C EMERGENCY_MODE $end
$var parameter 3 D IDLE $end
$var parameter 3 E OPEN_BARRIER $end
$var parameter 10 F TIMEOUT_MAX $end
$var parameter 3 G UPDATE_COUNT $end
$var parameter 3 H VEHICLE_DETECTED $end
$var parameter 3 I VEHICLE_PASSING $end
$var parameter 10 J VEHICLE_PASSING_TIMEOUT $end
$var reg 1 ( alarm $end
$var reg 1 K alarm_triggered $end
$var reg 1 ' calculate_fee $end
$var reg 1 L card_check_done $end
$var reg 1 M card_verified $end
$var reg 1 & close_entry $end
$var reg 1 % close_exit $end
$var reg 3 N current_state [2:0] $end
$var reg 1 O entry_in_progress $end
$var reg 1 P exit_in_progress $end
$var reg 1 Q idle_stabilized $end
$var reg 1 R is_entry_direction $end
$var reg 1 # open_entry $end
$var reg 1 " open_exit $end
$var reg 4 S prev_card_id [3:0] $end
$var reg 10 T timeout_counter [9:0] $end
$var reg 1 ! verify_card $end
$upscope $end
$upscope $end
$enddefinitions $end
$comment Show the parameter values. $end
$dumpall
b1001011000 J
b100 I
b1 H
b110 G
b100101100 F
b11 E
b0 D
b111 C
b101 B
b10 A
b100 1
b1 0
b110 /
b11 .
b0 -
b111 ,
b101 +
b1010 *
b10 )
$end
#0
$dumpvars
bx T
bx S
xR
xQ
xP
xO
bx N
xM
xL
xK
b0 @
b0 ?
bx >
1=
0<
0;
0:
09
08
07
06
05
04
b0 3
b0 2
x(
x'
x&
x%
bx $
x#
x"
x!
$end
#5
b1001001010001000100110001000101 >
0Q
0L
b0 S
0K
0P
0O
0M
0R
b0 T
0!
0'
0(
0%
0&
0"
0#
b0 $
b0 N
15
#10
05
#15
15
#20
05
#25
15
#30
05
0=
#35
1%
1&
b1 T
15
#40
05
#45
b10 T
1%
1&
15
#50
05
#55
b11 T
1%
1&
15
#60
05
#65
b100 T
1%
1&
15
#70
05
#75
1Q
b101 T
1%
1&
15
#80
05
#85
1%
1&
15
#90
05
#95
1%
1&
15
#100
05
#105
1%
1&
15
#110
05
#115
1%
1&
15
#120
05
#125
1%
1&
15
#130
05
18
#135
b100001101000001010100100100010001011111010101100100010101010010010010010100011001001001010000110100000101010100010010010100111101001110 >
0Q
b0 T
b10 $
b10 N
1!
1O
1R
1%
1&
15
#140
05
#145
b1 T
1K
1(
1L
0!
0%
0&
15
#150
05
#155
b10 T
15
#160
05
#165
b11 T
15
#170
05
#175
b100 T
15
#180
05
#185
b101 T
15
#190
05
#195
b110 T
15
#200
05
#205
b111 T
15
#210
05
#215
b1000 T
15
#220
05
#225
b1001 T
15
#230
05
14
b1010 3
b1010 @
#235
b1010 T
b1010 S
15
#240
05
#245
b1011 T
15
#250
05
#255
b1100 T
15
#260
05
#265
b1101 T
15
#270
05
#275
b1110 T
15
#280
05
#285
b1111 T
15
#290
05
#295
b10000 T
15
#300
05
#305
b10001 T
15
#310
05
#315
b10010 T
15
#320
05
#325
b10011 T
15
#330
05
#335
b10100 T
15
#340
05
#345
b10101 T
15
#350
05
#355
b10110 T
15
#360
05
#365
b10111 T
15
#370
05
#375
b11000 T
15
#380
05
#385
b11001 T
15
#390
05
#395
b11010 T
15
#400
05
#405
b11011 T
15
#410
05
#415
b11100 T
15
#420
05
#425
b11101 T
15
#430
05
#435
b11110 T
15
#440
05
#445
b11111 T
15
#450
05
#455
b100000 T
15
#460
05
#465
b100001 T
15
#470
05
#475
b100010 T
15
#480
05
#485
b100011 T
15
#490
05
#495
b100100 T
15
#500
05
#505
b100101 T
15
#510
05
#515
b100110 T
15
#520
05
#525
b100111 T
15
#530
05
17
#535
b101000 T
15
#540
05
#545
b101001 T
15
#550
05
#555
b101010 T
15
#560
05
#565
b101011 T
15
#570
05
#575
b101100 T
15
#580
05
#585
b101101 T
15
#590
05
#595
b101110 T
15
#600
05
#605
b101111 T
15
#610
05
#615
b110000 T
15
#620
05
#625
b110001 T
15
#630
05
08
#635
b110010 T
15
#640
05
#645
b110011 T
15
#650
05
#655
b110100 T
15
#660
05
#665
b110101 T
15
#670
05
#675
b110110 T
15
#680
05
#685
b110111 T
15
#690
05
#695
b111000 T
15
#700
05
#705
b111001 T
15
#710
05
#715
b111010 T
15
#720
05
#725
b111011 T
15
#730
05
04
07
#735
b1001001010001000100110001000101 >
b0 T
0O
b0 $
b0 N
15
#740
05
#745
1%
1&
b1 T
0L
0K
15
#750
05
#755
b10 T
0(
1%
1&
15
#760
05
#765
b11 T
1%
1&
15
#770
05
#775
b100 T
1%
1&
15
#780
05
#785
1Q
b101 T
1%
1&
15
#790
05
#795
1%
1&
15
#800
05
#805
1%
1&
15
#810
05
#815
1%
1&
15
#820
05
#825
1%
1&
15
#830
05
#835
1%
1&
15
#840
05
#845
1%
1&
15
#850
05
#855
1%
1&
15
#860
05
#865
1%
1&
15
#870
05
#875
1%
1&
15
#880
05
#885
1%
1&
15
#890
05
#895
1%
1&
15
#900
05
#905
1%
1&
15
#910
05
#915
1%
1&
15
#920
05
#925
1%
1&
15
#930
05
18
#935
b100001101000001010100100100010001011111010101100100010101010010010010010100011001001001010000110100000101010100010010010100111101001110 >
0Q
b0 T
b10 $
b10 N
1!
1O
1%
1&
15
#940
05
#945
b1 T
1K
1(
1L
0!
0%
0&
15
#950
05
#955
b10 T
15
#960
05
#965
b11 T
15
#970
05
#975
b100 T
15
#980
05
#985
b101 T
15
#990
05
#995
b110 T
15
#1000
05
#1005
b111 T
15
#1010
05
#1015
b1000 T
15
#1020
05
#1025
b1001 T
15
#1030
05
b101 3
b101 @
#1035
b1010 T
b101 S
15
#1040
05
#1045
b1011 T
15
#1050
05
#1055
b1100 T
15
#1060
05
#1065
b1101 T
15
#1070
05
#1075
b1110 T
15
#1080
05
#1085
b1111 T
15
#1090
05
#1095
b10000 T
15
#1100
05
#1105
b10001 T
15
#1110
05
#1115
b10010 T
15
#1120
05
#1125
b10011 T
15
#1130
05
#1135
b10100 T
15
#1140
05
#1145
b10101 T
15
#1150
05
#1155
b10110 T
15
#1160
05
#1165
b10111 T
15
#1170
05
#1175
b11000 T
15
#1180
05
#1185
b11001 T
15
#1190
05
#1195
b11010 T
15
#1200
05
#1205
b11011 T
15
#1210
05
#1215
b11100 T
15
#1220
05
#1225
b11101 T
15
#1230
05
#1235
b11110 T
15
#1240
05
#1245
b11111 T
15
#1250
05
#1255
b100000 T
15
#1260
05
#1265
b100001 T
15
#1270
05
#1275
b100010 T
15
#1280
05
#1285
b100011 T
15
#1290
05
#1295
b100100 T
15
#1300
05
#1305
b100101 T
15
#1310
05
#1315
b100110 T
15
#1320
05
#1325
b100111 T
15
#1330
05
#1335
b101000 T
15
#1340
05
#1345
b101001 T
15
#1350
05
#1355
b101010 T
15
#1360
05
#1365
b101011 T
15
#1370
05
#1375
b101100 T
15
#1380
05
#1385
b101101 T
15
#1390
05
#1395
b101110 T
15
#1400
05
#1405
b101111 T
15
#1410
05
#1415
b110000 T
15
#1420
05
#1425
b110001 T
15
#1430
05
#1435
b110010 T
15
#1440
05
#1445
b1001001010001000100110001000101 >
b0 T
0O
b0 $
b0 N
15
#1450
05
#1455
1%
1&
b1 T
0L
0K
15
#1460
05
#1465
b10 T
0(
1%
1&
15
#1470
05
#1475
b11 T
1%
1&
15
#1480
05
#1485
b100 T
1%
1&
15
#1490
05
#1495
1Q
b101 T
1%
1&
15
#1500
05
#1505
b100001101000001010100100100010001011111010101100100010101010010010010010100011001001001010000110100000101010100010010010100111101001110 >
0Q
b0 T
b10 $
b10 N
1!
1O
1%
1&
15
#1510
05
#1515
b1 T
1K
1(
1L
0!
0%
0&
15
#1520
05
#1525
b10 T
15
#1530
05
#1535
b11 T
15
#1540
05
#1545
b100 T
15
#1550
05
#1555
b101 T
15
#1560
05
#1565
b110 T
15
#1570
05
#1575
b111 T
15
#1580
05
#1585
b1000 T
15
#1590
05
#1595
b1001 T
15
#1600
05
#1605
b1010 T
15
#1610
05
#1615
b1011 T
15
#1620
05
#1625
b1100 T
15
#1630
05
#1635
b1101 T
15
#1640
05
#1645
b1110 T
15
#1650
05
#1655
b1111 T
15
#1660
05
#1665
b10000 T
15
#1670
05
#1675
b10001 T
15
#1680
05
#1685
b10010 T
15
#1690
05
#1695
b10011 T
15
#1700
05
#1705
b10100 T
15
#1710
05
#1715
b10101 T
15
#1720
05
#1725
b10110 T
15
#1730
05
08
#1735
b10111 T
15
#1740
05
#1745
b11000 T
15
#1750
05
#1755
b11001 T
15
#1760
05
#1765
b11010 T
15
#1770
05
#1775
b11011 T
15
#1780
05
#1785
b11100 T
15
#1790
05
#1795
b11101 T
15
#1800
05
#1805
b11110 T
15
#1810
05
#1815
b11111 T
15
#1820
05
#1825
b100000 T
15
#1830
05
1=
#1835
b1001001010001000100110001000101 >
0L
b0 S
0K
0O
0R
b0 T
0(
b0 $
b0 N
15
#1840
05
#1845
15
#1850
05
#1855
15
#1860
05
0=
#1865
1%
1&
b1 T
b101 S
15
#1870
05
#1875
b10 T
1%
1&
15
#1880
05
#1885
b11 T
1%
1&
15
#1890
05
#1895
b100 T
1%
1&
15
#1900
05
#1905
1Q
b101 T
1%
1&
15
#1910
05
#1915
1%
1&
15
#1920
05
#1925
1%
1&
15
#1930
05
#1935
1%
1&
15
#1940
05
#1945
1%
1&
15
#1950
05
#1955
1%
1&
15
#1960
05
1:
#1965
b1010110010001010100100001001001010000110100110001000101010111110100010001000101010101000100010101000011010101000100010101000100 >
0Q
b0 T
b1 $
b1 N
1'
1P
1%
1&
15
#1970
05
#1975
b1 T
0'
0%
0&
15
#1980
05
#1985
b10 T
15
#1990
05
#1995
b11 T
15
#2000
05
#2005
b100 T
15
#2010
05
#2015
b101 T
15
#2020
05
#2025
b110 T
15
#2030
05
#2035
b111 T
15
#2040
05
#2045
b1000 T
15
#2050
05
#2055
b1001 T
15
#2060
05
#2065
b1010 T
15
#2070
05
#2075
b1011 T
15
#2080
05
#2085
b1100 T
15
#2090
05
#2095
b1101 T
15
#2100
05
#2105
b1110 T
15
#2110
05
#2115
b1111 T
15
#2120
05
#2125
b10000 T
15
#2130
05
#2135
b10001 T
15
#2140
05
#2145
b10010 T
15
#2150
05
#2155
b10011 T
15
#2160
05
#2165
b10100 T
15
#2170
05
#2175
b10101 T
15
#2180
05
#2185
b10110 T
15
#2190
05
#2195
b10111 T
15
#2200
05
#2205
b11000 T
15
#2210
05
#2215
b11001 T
15
#2220
05
#2225
b11010 T
15
#2230
05
#2235
b11011 T
15
#2240
05
#2245
b11100 T
15
#2250
05
#2255
b11101 T
15
#2260
05
#2265
b11110 T
15
#2270
05
#2275
b11111 T
15
#2280
05
#2285
b100000 T
15
#2290
05
#2295
b100001 T
15
#2300
05
#2305
b100010 T
15
#2310
05
#2315
b100011 T
15
#2320
05
#2325
b100100 T
15
#2330
05
#2335
b100101 T
15
#2340
05
#2345
b100110 T
15
#2350
05
#2355
b100111 T
15
#2360
05
#2365
b101000 T
15
#2370
05
#2375
b101001 T
15
#2380
05
#2385
b101010 T
15
#2390
05
#2395
b101011 T
15
#2400
05
#2405
b101100 T
15
#2410
05
#2415
b101101 T
15
#2420
05
#2425
b101110 T
15
#2430
05
#2435
b101111 T
15
#2440
05
#2445
b110000 T
15
#2450
05
#2455
b110001 T
15
#2460
05
#2465
b110010 T
15
#2470
05
#2475
b110011 T
15
#2480
05
#2485
b110100 T
15
#2490
05
#2495
b110101 T
15
#2500
05
#2505
b110110 T
15
#2510
05
#2515
b110111 T
15
#2520
05
#2525
b111000 T
15
#2530
05
#2535
b111001 T
15
#2540
05
#2545
b111010 T
15
#2550
05
#2555
b111011 T
15
#2560
05
#2565
b111100 T
15
#2570
05
#2575
b111101 T
15
#2580
05
#2585
b111110 T
15
#2590
05
#2595
b111111 T
15
#2600
05
#2605
b1000000 T
15
#2610
05
#2615
b1000001 T
15
#2620
05
#2625
b1000010 T
15
#2630
05
#2635
b1000011 T
15
#2640
05
#2645
b1000100 T
15
#2650
05
#2655
b1000101 T
15
#2660
05
1;
#2665
b10011110101000001000101010011100101111101000010010000010101001001010010010010010100010101010010 >
b1000110 T
b11 $
b11 N
15
#2670
05
#2675
b10101100100010101001000010010010100001101001100010001010101111101010000010000010101001101010011010010010100111001000111 >
b0 T
b100 $
b100 N
1"
15
#2680
05
#2685
b1 T
1"
15
#2690
05
#2695
b10 T
1"
15
#2700
05
#2705
b11 T
1"
15
#2710
05
#2715
b100 T
1"
15
#2720
05
#2725
b101 T
1"
15
#2730
05
#2735
b110 T
1"
15
#2740
05
#2745
b111 T
1"
15
#2750
05
#2755
b1000 T
1"
15
#2760
05
#2765
b1001 T
1"
15
#2770
05
#2775
b1010 T
1"
15
#2780
05
#2785
b1011 T
1"
15
#2790
05
#2795
b1100 T
1"
15
#2800
05
#2805
b1101 T
1"
15
#2810
05
#2815
b1110 T
1"
15
#2820
05
#2825
b1111 T
1"
15
#2830
05
#2835
b10000 T
1"
15
#2840
05
#2845
b10001 T
1"
15
#2850
05
#2855
b10010 T
1"
15
#2860
05
19
#2865
b1000011010011000100111101010011010001010101111101000010010000010101001001010010010010010100010101010010 >
b10011 T
b101 $
b101 N
1"
15
#2870
05
#2875
b10101010101000001000100010000010101010001000101010111110100001101001111010101010100111001010100 >
b0 T
b110 $
b110 N
1%
0"
15
#2880
05
#2885
b1010110010001010100100001001001010000110100110001000101010111110100010001000101010101000100010101000011010101000100010101000100 >
b1 $
b1 N
0P
0%
15
#2890
05
#2895
b1001001010001000100110001000101 >
b1 T
b0 $
b0 N
15
#2900
05
#2905
1%
1&
b10 T
15
#2910
05
#2915
b11 T
1%
1&
15
#2920
05
#2925
b100 T
1%
1&
15
#2930
05
#2935
1Q
b101 T
1%
1&
15
#2940
05
#2945
b1010110010001010100100001001001010000110100110001000101010111110100010001000101010101000100010101000011010101000100010101000100 >
0Q
b0 T
b1 $
b1 N
1'
1P
1%
1&
15
#2950
05
#2955
b10011110101000001000101010011100101111101000010010000010101001001010010010010010100010101010010 >
b1 T
b11 $
b11 N
0'
0%
0&
15
#2960
05
0:
#2965
b10101100100010101001000010010010100001101001100010001010101111101010000010000010101001101010011010010010100111001000111 >
b0 T
b100 $
b100 N
1"
15
#2970
05
#2975
b1000011010011000100111101010011010001010101111101000010010000010101001001010010010010010100010101010010 >
b1 T
b101 $
b101 N
1"
15
#2980
05
#2985
b10101010101000001000100010000010101010001000101010111110100001101001111010101010100111001010100 >
b0 T
b110 $
b110 N
1%
0"
15
#2990
05
#2995
b1010110010001010100100001001001010000110100110001000101010111110100010001000101010101000100010101000011010101000100010101000100 >
b1 $
b1 N
0P
0%
15
#3000
05
#3005
b1001001010001000100110001000101 >
b1 T
b0 $
b0 N
15
#3010
05
#3015
1%
1&
b10 T
15
#3020
05
#3025
b11 T
1%
1&
15
#3030
05
#3035
b100 T
1%
1&
15
#3040
05
#3045
1Q
b101 T
1%
1&
15
#3050
05
#3055
1%
1&
15
#3060
05
0;
09
#3065
1%
1&
15
#3070
05
#3075
1%
1&
15
#3080
05
#3085
1%
1&
15
#3090
05
#3095
1%
1&
15
#3100
05
#3105
1%
1&
15
#3110
05
#3115
1%
1&
15
#3120
05
#3125
1%
1&
15
#3130
05
#3135
1%
1&
15
#3140
05
#3145
1%
1&
15
#3150
05
#3155
1%
1&
15
#3160
05
#3165
1%
1&
15
#3170
05
#3175
1%
1&
15
#3180
05
#3185
1%
1&
15
#3190
05
#3195
1%
1&
15
#3200
05
#3205
1%
1&
15
#3210
05
#3215
1%
1&
15
#3220
05
#3225
1%
1&
15
#3230
05
#3235
1%
1&
15
#3240
05
#3245
1%
1&
15
#3250
05
#3255
1%
1&
15
#3260
05
18
1<
#3265
1K
1(
1%
1&
15
#3270
05
#3275
1K
1%
1&
15
#3280
05
#3285
1K
1%
1&
15
#3290
05
#3295
1K
1%
1&
15
#3300
05
#3305
1K
1%
1&
15
#3310
05
#3315
1K
1%
1&
15
#3320
05
#3325
1K
1%
1&
15
#3330
05
#3335
1K
1%
1&
15
#3340
05
#3345
1K
1%
1&
15
#3350
05
#3355
1K
1%
1&
15
#3360
05
#3365
1K
1%
1&
15
#3370
05
#3375
1K
1%
1&
15
#3380
05
#3385
1K
1%
1&
15
#3390
05
#3395
1K
1%
1&
15
#3400
05
#3405
1K
1%
1&
15
#3410
05
0<
08
#3415
0K
1%
1&
15
#3420
05
#3425
0(
1%
1&
15
#3430
05
#3435
1%
1&
15
#3440
05
#3445
1%
1&
15
#3450
05
#3455
1%
1&
15
#3460
05
#3465
1%
1&
15
#3470
05
#3475
1%
1&
15
#3480
05
#3485
1%
1&
15
#3490
05
#3495
1%
1&
15
#3500
05
#3505
1%
1&
15
#3510
05
#3515
1%
1&
15
#3520
05
#3525
1%
1&
15
#3530
05
#3535
1%
1&
15
#3540
05
#3545
1%
1&
15
#3550
05
#3555
1%
1&
15
#3560
05
#3565
1%
1&
15
#3570
05
#3575
1%
1&
15
#3580
05
#3585
1%
1&
15
#3590
05
#3595
1%
1&
15
#3600
05
#3605
1%
1&
15
#3610
05
16
#3615
b100010101001101010001010101001001000111010001010100111001000011010110010101111101001101010011110100010001000101 >
b0 T
0Q
1"
1#
b111 $
b111 N
0%
0&
15
#3620
05
#3625
1"
1#
15
#3630
05
#3635
1"
1#
15
#3640
05
#3645
1"
1#
15
#3650
05
#3655
1"
1#
15
#3660
05
#3665
1"
1#
15
#3670
05
#3675
1"
1#
15
#3680
05
#3685
1"
1#
15
#3690
05
#3695
1"
1#
15
#3700
05
#3705
1"
1#
15
#3710
05
06
#3715
b1001001010001000100110001000101 >
b0 $
b0 N
1"
1#
15
#3720
05
#3725
1%
1&
b1 T
0"
0#
15
#3730
05
#3735
b10 T
1%
1&
15
#3740
05
#3745
b11 T
1%
1&
15
#3750
05
#3755
b100 T
1%
1&
15
#3760
05
#3765
1Q
b101 T
1%
1&
15
#3770
05
#3775
1%
1&
15
#3780
05
#3785
1%
1&
15
#3790
05
#3795
1%
1&
15
#3800
05
#3805
1%
1&
15
#3810
05
#3815
1%
1&
15
#3820
05
#3825
1%
1&
15
#3830
05
#3835
1%
1&
15
#3840
05
#3845
1%
1&
15
#3850
05
#3855
1%
1&
15
#3860
05
#3865
1%
1&
15
#3870
05
#3875
1%
1&
15
#3880
05
#3885
1%
1&
15
#3890
05
#3895
1%
1&
15
#3900
05
#3905
1%
1&
15
#3910
05
1=
#3915
0Q
b0 S
b0 T
0%
0&
15
#3920
05
#3925
15
#3930
05
#3935
15
#3940
05
0=
#3945
1%
1&
b1 T
b101 S
15
#3950
05
#3955
b10 T
1%
1&
15
#3960
05
#3965
b11 T
1%
1&
15
#3970
05
#3975
b100 T
1%
1&
15
#3980
05
#3985
1Q
b101 T
1%
1&
15
#3990
05
#3995
1%
1&
15
#4000
05
#4005
1%
1&
15
#4010
05
#4015
1%
1&
15
#4020
05
#4025
1%
1&
15
#4030
05
#4035
1%
1&
15
#4040
05
18
#4045
b100001101000001010100100100010001011111010101100100010101010010010010010100011001001001010000110100000101010100010010010100111101001110 >
0Q
b0 T
b10 $
b10 N
1!
1O
1R
1%
1&
15
#4050
05
#4055
b1 T
1K
1(
1L
0!
0%
0&
15
#4060
05
#4065
b10 T
15
#4070
05
#4075
b11 T
15
#4080
05
#4085
b100 T
15
#4090
05
#4095
b101 T
15
#4100
05
#4105
b110 T
15
#4110
05
#4115
b111 T
15
#4120
05
#4125
b1000 T
15
#4130
05
#4135
b1001 T
15
#4140
05
#4145
b1010 T
15
#4150
05
#4155
b1011 T
15
#4160
05
#4165
b1100 T
15
#4170
05
#4175
b1101 T
15
#4180
05
#4185
b1110 T
15
#4190
05
#4195
b1111 T
15
#4200
05
#4205
b10000 T
15
#4210
05
#4215
b10001 T
15
#4220
05
#4225
b10010 T
15
#4230
05
#4235
b10011 T
15
#4240
05
#4245
b10100 T
15
#4250
05
#4255
b10101 T
15
#4260
05
#4265
b10110 T
15
#4270
05
#4275
b10111 T
15
#4280
05
#4285
b11000 T
15
#4290
05
#4295
b11001 T
15
#4300
05
#4305
b11010 T
15
#4310
05
#4315
b11011 T
15
#4320
05
#4325
b11100 T
15
#4330
05
#4335
b11101 T
15
#4340
05
#4345
b11110 T
15
#4350
05
#4355
b11111 T
15
#4360
05
#4365
b100000 T
15
#4370
05
#4375
b100001 T
15
#4380
05
#4385
b100010 T
15
#4390
05
#4395
b100011 T
15
#4400
05
#4405
b100100 T
15
#4410
05
#4415
b100101 T
15
#4420
05
#4425
b100110 T
15
#4430
05
#4435
b100111 T
15
#4440
05
#4445
b101000 T
15
#4450
05
#4455
b101001 T
15
#4460
05
#4465
b101010 T
15
#4470
05
#4475
b101011 T
15
#4480
05
#4485
b101100 T
15
#4490
05
#4495
b101101 T
15
#4500
05
#4505
b101110 T
15
#4510
05
#4515
b101111 T
15
#4520
05
#4525
b110000 T
15
#4530
05
#4535
b110001 T
15
#4540
05
#4545
b110010 T
15
#4550
05
#4555
b1001001010001000100110001000101 >
b0 T
0O
b0 $
b0 N
15
#4560
05
#4565
1%
1&
b1 T
0L
0K
15
#4570
05
#4575
b10 T
0(
1%
1&
15
#4580
05
#4585
b11 T
1%
1&
15
#4590
05
#4595
b100 T
1%
1&
15
#4600
05
#4605
1Q
b101 T
1%
1&
15
#4610
05
#4615
b100001101000001010100100100010001011111010101100100010101010010010010010100011001001001010000110100000101010100010010010100111101001110 >
0Q
b0 T
b10 $
b10 N
1!
1O
1%
1&
15
#4620
05
#4625
b1 T
1K
1(
1L
0!
0%
0&
15
#4630
05
#4635
b10 T
15
#4640
05
#4645
b11 T
15
#4650
05
#4655
b100 T
15
#4660
05
#4665
b101 T
15
#4670
05
#4675
b110 T
15
#4680
05
#4685
b111 T
15
#4690
05
#4695
b1000 T
15
#4700
05
#4705
b1001 T
15
#4710
05
#4715
b1010 T
15
#4720
05
#4725
b1011 T
15
#4730
05
#4735
b1100 T
15
#4740
05
#4745
b1101 T
15
#4750
05
#4755
b1110 T
15
#4760
05
#4765
b1111 T
15
#4770
05
#4775
b10000 T
15
#4780
05
#4785
b10001 T
15
#4790
05
#4795
b10010 T
15
#4800
05
#4805
b10011 T
15
#4810
05
#4815
b10100 T
15
#4820
05
#4825
b10101 T
15
#4830
05
#4835
b10110 T
15
#4840
05
08
#4845
b10111 T
15
#4850
05
#4855
b11000 T
15
#4860
05
#4865
b11001 T
15
#4870
05
#4875
b11010 T
15
#4880
05
#4885
b11011 T
15
#4890
05
#4895
b11100 T
15
#4900
05
#4905
b11101 T
15
#4910
05
#4915
b11110 T
15
#4920
05
#4925
b11111 T
15
#4930
05
#4935
b100000 T
15
#4940
05
#4945
b100001 T
15
#4950
05
#4955
b100010 T
15
#4960
05
#4965
b100011 T
15
#4970
05
#4975
b100100 T
15
#4980
05
#4985
b100101 T
15
#4990
05
#4995
b100110 T
15
#5000
05
#5005
b100111 T
15
#5010
05
#5015
b101000 T
15
#5020
05
#5025
b101001 T
15
#5030
05
#5035
b101010 T
15
#5040
05
1:
18
#5045
b101011 T
15
#5050
05
#5055
b101100 T
15
#5060
05
#5065
b101101 T
15
#5070
05
#5075
b101110 T
15
#5080
05
#5085
b101111 T
15
#5090
05
#5095
b110000 T
15
#5100
05
#5105
b110001 T
15
#5110
05
#5115
b110010 T
15
#5120
05
#5125
b1001001010001000100110001000101 >
b0 T
0O
b0 $
b0 N
15
#5130
05
#5135
1%
1&
b1 T
0L
0K
15
#5140
05
#5145
b10 T
0(
1%
1&
15
#5150
05
#5155
b11 T
1%
1&
15
#5160
05
#5165
b100 T
1%
1&
15
#5170
05
#5175
1Q
b101 T
1%
1&
15
#5180
05
#5185
b1010110010001010100100001001001010000110100110001000101010111110100010001000101010101000100010101000011010101000100010101000100 >
1'
1P
0R
0Q
b0 T
b1 $
b1 N
1!
1O
1%
1&
15
#5190
05
#5195
b1 T
0!
0'
0%
0&
15
#5200
05
#5205
b10 T
15
#5210
05
#5215
b11 T
15
#5220
05
#5225
b100 T
15
#5230
05
#5235
b101 T
15
#5240
05
14
b1010 3
b1010 @
#5245
b110 T
b1010 S
15
#5250
05
#5255
b111 T
15
#5260
05
#5265
b1000 T
15
#5270
05
#5275
b1001 T
15
#5280
05
#5285
b1010 T
15
#5290
05
#5295
b1011 T
15
#5300
05
#5305
b1100 T
15
#5310
05
#5315
b1101 T
15
#5320
05
#5325
b1110 T
15
#5330
05
#5335
b1111 T
15
#5340
05
#5345
b10000 T
15
#5350
05
#5355
b10001 T
15
#5360
05
#5365
b10010 T
15
#5370
05
#5375
b10011 T
15
#5380
05
#5385
b10100 T
15
#5390
05
#5395
b10101 T
15
#5400
05
#5405
b10110 T
15
#5410
05
#5415
b10111 T
15
#5420
05
#5425
b11000 T
15
#5430
05
#5435
b11001 T
15
#5440
05
17
#5445
b11010 T
15
#5450
05
#5455
b11011 T
15
#5460
05
#5465
b11100 T
15
#5470
05
#5475
b11101 T
15
#5480
05
#5485
b11110 T
15
#5490
05
#5495
b11111 T
15
#5500
05
#5505
b100000 T
15
#5510
05
#5515
b100001 T
15
#5520
05
#5525
b100010 T
15
#5530
05
#5535
b100011 T
15
#5540
05
08
#5545
b100100 T
15
#5550
05
#5555
b100101 T
15
#5560
05
#5565
b100110 T
15
#5570
05
#5575
b100111 T
15
#5580
05
#5585
b101000 T
15
#5590
05
#5595
b101001 T
15
#5600
05
#5605
b101010 T
15
#5610
05
#5615
b101011 T
15
#5620
05
#5625
b101100 T
15
#5630
05
#5635
b101101 T
15
#5640
05
07
#5645
b101110 T
15
#5650
05
#5655
b101111 T
15
#5660
05
#5665
b110000 T
15
#5670
05
#5675
b110001 T
15
#5680
05
#5685
b110010 T
15
#5690
05
#5695
b110011 T
15
#5700
05
#5705
b110100 T
15
#5710
05
#5715
b110101 T
15
#5720
05
#5725
b110110 T
15
#5730
05
#5735
b110111 T
15
#5740
05
#5745
b111000 T
15
#5750
05
#5755
b111001 T
15
#5760
05
#5765
b111010 T
15
#5770
05
#5775
b111011 T
15
#5780
05
#5785
b111100 T
15
#5790
05
#5795
b111101 T
15
#5800
05
#5805
b111110 T
15
#5810
05
#5815
b111111 T
15
#5820
05
#5825
b1000000 T
15
#5830
05
#5835
b1000001 T
15
#5840
05
1;
#5845
b10011110101000001000101010011100101111101000010010000010101001001010010010010010100010101010010 >
b1000010 T
b11 $
b11 N
15
#5850
05
#5855
b10101100100010101001000010010010100001101001100010001010101111101010000010000010101001101010011010010010100111001000111 >
b0 T
b100 $
b100 N
1"
15
#5860
05
#5865
b1 T
1"
15
#5870
05
#5875
b10 T
1"
15
#5880
05
#5885
b11 T
1"
15
#5890
05
#5895
b100 T
1"
15
#5900
05
#5905
b101 T
1"
15
#5910
05
#5915
b110 T
1"
15
#5920
05
#5925
b111 T
1"
15
#5930
05
#5935
b1000 T
1"
15
#5940
05
#5945
b1001 T
1"
15
#5950
05
#5955
b1010 T
1"
15
#5960
05
#5965
b1011 T
1"
15
#5970
05
#5975
b1100 T
1"
15
#5980
05
#5985
b1101 T
1"
15
#5990
05
#5995
b1110 T
1"
15
#6000
05
#6005
b1111 T
1"
15
#6010
05
#6015
b10000 T
1"
15
#6020
05
#6025
b10001 T
1"
15
#6030
05
#6035
b10010 T
1"
15
#6040
05
19
#6045
b1000011010011000100111101010011010001010101111101000010010000010101001001010010010010010100010101010010 >
b10011 T
b101 $
b101 N
1"
15
#6050
05
#6055
b10101010101000001000100010000010101010001000101010111110100001101001111010101010100111001010100 >
b0 T
b110 $
b110 N
1%
0"
15
#6060
05
#6065
b1010110010001010100100001001001010000110100110001000101010111110100010001000101010101000100010101000011010101000100010101000100 >
b1 $
b1 N
0P
0%
15
#6070
05
#6075
b1001001010001000100110001000101 >
b1 T
0O
b0 $
b0 N
15
#6080
05
#6085
1%
1&
b10 T
15
#6090
05
#6095
b11 T
1%
1&
15
#6100
05
#6105
b100 T
1%
1&
15
#6110
05
#6115
1Q
b101 T
1%
1&
15
#6120
05
